Distribuição dos psicólogos nos níveis assistenciais na 11º região de saúde do Ceará
…
Distribuição dos psicólogos nos níveis assistenciais na 11º região de saúde do Ceará

# A tibble: 3 × 2
  nivel_atencao          n
  <chr>              <int>
1 atenção primária      96
2 atenção secundária    63
3 atenção terciária     12

# A tibble: 24 × 2
   nome_do_municipio     n
   <chr>             <int>
 1 Alcântaras            2
 2 Cariré                5
 3 Catunda               2
 4 Coreaú                2
 5 Forquilha             4
 6 Frecheirinha          7
 7 Graça                 5
 8 Groaíras              6
 9 Hidrolândia           4
10 Ipu                   8
# ℹ 14 more rows
…
